gvi2-master/lab3/simulation/qsim/Lab3assignment.msim.vcd
$comment
	File created using the following command:
		vcd file Lab3assignment.msim.vcd -direction
$end
$date
	Thu Feb 10 16:32:37 2022
$end
$version
	ModelSim Version 10.6d
$end
$timescale
	1ps
$end

$scope module Lab3assignment_vlg_vec_tst $end
$var reg 1 ! A $end
$var reg 1 " B $end
$var reg 1 # Cin $end
$var wire 1 $ Cout $end
$var wire 1 % s $end

$scope module i1 $end
$var wire 1 & gnd $end
$var wire 1 ' vcc $end
$var wire 1 ( unknown $end
$var tri1 1 ) devclrn $end
$var tri1 1 * devpor $end
$var tri1 1 + devoe $end
$var wire 1 , Cout~pad_padout $end
$var wire 1 - Cout~padSIMOUT $end
$var wire 1 . s~pad_padout $end
$var wire 1 / s~padSIMOUT $end
$var wire 1 0 Cin~pad_padout $end
$var wire 1 1 B~pad_padout $end
$var wire 1 2 A~pad_padout $end
$var wire 1 3 ~ALTERA_DATA0~~padout $end
$var wire 1 4 ~ALTERA_DATA0~~ibuf_o $end
$var wire 1 5 A~input_o $end
$var wire 1 6 B~input_o $end
$var wire 1 7 Cin~input_o $end
$var wire 1 8 inst3~0_combout $end
$var wire 1 9 inst18~0_combout $end
$upscope $end
$upscope $end
$enddefinitions $end
#0
$dumpvars
1!
0"
0#
0$
1%
0&
1'
x(
1)
1*
1+
z,
z-
z.
z/
z0
z1
z2
z3
z4
15
06
07
08
19
$end
#10000
0!
1"
05
16
#20000
1!
15
09
18
0%
1$
#30000
1#
0"
0!
17
06
05
19
08
1%
0$
#40000
1!
15
09
18
0%
1$
#50000
1"
0!
16
05
#60000
1!
15
19
1%
#69000
0#
0"
0!
07
06
05
09
08
0%
0$
